{
  "OutputGroups": [
    {
      "CustomName": "MPEG-4_AVC",
      "Name": "File Group",
      "Outputs": [
        {
          "ContainerSettings": {
            "Container": "MP4",
            "Mp4Settings": {
              "CslgAtom": "INCLUDE",
              "CttsVersion": 0,
              "FreeSpaceBox": "EXCLUDE",
              "MoovPlacement": "PROGRESSIVE_DOWNLOAD"
            }
          },
          "VideoDescription": {
            "ScalingBehavior": "DEFAULT",
            "TimecodeInsertion": "DISABLED",
            "AntiAlias": "ENABLED",
            "Sharpness": 50,
            "CodecSettings": {
              "Codec": "H_264",
              "H264Settings": {
                "InterlaceMode": "PROGRESSIVE",
                "NumberReferenceFrames": 3,
                "Syntax": "DEFAULT",
                "Softness": 0,
                "GopClosedCadence": 1,
                "GopSize": 90,
                "Slices": 1,
                "GopBReference": "DISABLED",
                "SlowPal": "DISABLED",
                "SpatialAdaptiveQuantization": "ENABLED",
                "TemporalAdaptiveQuantization": "ENABLED",
                "FlickerAdaptiveQuantization": "DISABLED",
                "EntropyEncoding": "CABAC",
                "Bitrate": 1000000,
                "FramerateControl": "INITIALIZE_FROM_SOURCE",
                "RateControlMode": "CBR",
                "CodecProfile": "MAIN",
                "Telecine": "NONE",
                "MinIInterval": 0,
                "AdaptiveQuantization": "HIGH",
                "CodecLevel": "AUTO",
                "FieldEncoding": "PAFF",
                "SceneChangeDetect": "ENABLED",
                "QualityTuningLevel": "SINGLE_PASS",
                "FramerateConversionAlgorithm": "DUPLICATE_DROP",
                "UnregisteredSeiTimecode": "DISABLED",
                "GopSizeUnits": "FRAMES",
                "ParControl": "INITIALIZE_FROM_SOURCE",
                "NumberBFramesBetweenReferenceFrames": 2,
                "RepeatPps": "DISABLED",
                "DynamicSubGop": "STATIC"
              }
            },
            "AfdSignaling": "NONE",
            "DropFrameTimecode": "ENABLED",
            "RespondToAfd": "NONE",
            "ColorMetadata": "INSERT"
          },
          "AudioDescriptions": [
            {
              "AudioTypeControl": "FOLLOW_INPUT",
              "CodecSettings": {
                "Codec": "AAC",
                "AacSettings": {
                  "AudioDescriptionBroadcasterMix": "NORMAL",
                  "Bitrate": 96000,
                  "RateControlMode": "CBR",
                  "CodecProfile": "LC",
                  "CodingMode": "CODING_MODE_2_0",
                  "RawFormat": "NONE",
                  "SampleRate": 48000,
                  "Specification": "MPEG4"
                }
              },
              "LanguageCodeControl": "FOLLOW_INPUT"
            }
          ]
        }
      ],
      "OutputGroupSettings": {
        "Type": "FILE_GROUP_SETTINGS",
        "FileGroupSettings": {
          "Destination": "s3://example-buket/PREVIEW/"
        }
      }
    }
  ],
  "AdAvailOffset": 0,
  "Inputs": [
    {
      "InputClippings": [
        {
          "EndTimecode": "",
          "StartTimecode": ""
        }
      ],
      "AudioSelectors": {
        "Audio Selector 1": {
          "Offset": 0,
          "DefaultSelection": "DEFAULT",
          "ProgramSelection": 1
        }
      },
      "VideoSelector": {
        "ColorSpace": "FOLLOW",
        "Rotate": "AUTO",
        "AlphaBehavior": "DISCARD"
      },
      "FilterEnable": "AUTO",
      "PsiControl": "USE_PSI",
      "FilterStrength": 0,
      "DeblockFilter": "DISABLED",
      "DenoiseFilter": "DISABLED",
      "TimecodeSource": "ZEROBASED",
      "FileInput": ""
    }
  ]
}
